# compile vhdl design source files
vhdl xil_defaultlib  \
"../../../../iir_filter.srcs/sources_1/new/adder.vhd" \
"../../../../iir_filter.srcs/sources_1/new/delayer1.vhd" \
"../../../../iir_filter.srcs/sources_1/new/delayer2.vhd" \
"../../../../iir_filter.srcs/sources_1/new/iir.vhd" \
"../../../../../txt_util.vhd" \
"../../../../iir_filter.srcs/sources_1/new/multiplier.vhd" \
"../../../../iir_filter.srcs/sources_1/new/paralleldff.vhd" \
"../../../../iir_filter.srcs/sim_1/new/iir_tb.vhd" \

# Do not sort compile order
nosort
